Parte1/simulation/qsim/RAMModule.msim.vcd
$comment
	File created using the following command:
		vcd file RAMModule.msim.vcd -direction
$end
$date
	Tue Oct 01 15:11:22 2024
$end
$version
	ModelSim Version 10.5b
$end
$timescale
	1ps
$end

$scope module ram32x4_vhd_vec_tst $end
$var wire 1 ! address [4] $end
$var wire 1 " address [3] $end
$var wire 1 # address [2] $end
$var wire 1 $ address [1] $end
$var wire 1 % address [0] $end
$var wire 1 & clock $end
$var wire 1 ' data [3] $end
$var wire 1 ( data [2] $end
$var wire 1 ) data [1] $end
$var wire 1 * data [0] $end
$var wire 1 + q [3] $end
$var wire 1 , q [2] $end
$var wire 1 - q [1] $end
$var wire 1 . q [0] $end
$var wire 1 / wren $end

$scope module i1 $end
$var wire 1 0 gnd $end
$var wire 1 1 vcc $end
$var wire 1 2 unknown $end
$var wire 1 3 devoe $end
$var wire 1 4 devclrn $end
$var wire 1 5 devpor $end
$var wire 1 6 ww_devoe $end
$var wire 1 7 ww_devclrn $end
$var wire 1 8 ww_devpor $end
$var wire 1 9 ww_address [4] $end
$var wire 1 : ww_address [3] $end
$var wire 1 ; ww_address [2] $end
$var wire 1 < ww_address [1] $end
$var wire 1 = ww_address [0] $end
$var wire 1 > ww_clock $end
$var wire 1 ? ww_data [3] $end
$var wire 1 @ ww_data [2] $end
$var wire 1 A ww_data [1] $end
$var wire 1 B ww_data [0] $end
$var wire 1 C ww_wren $end
$var wire 1 D ww_q [3] $end
$var wire 1 E ww_q [2] $end
$var wire 1 F ww_q [1] $end
$var wire 1 G ww_q [0] $end
$var wire 1 H \altsyncram_component|auto_generated|ram_block1a0_PORTADATAIN_bus\ [19] $end
$var wire 1 I \altsyncram_component|auto_generated|ram_block1a0_PORTADATAIN_bus\ [18] $end
$var wire 1 J \altsyncram_component|auto_generated|ram_block1a0_PORTADATAIN_bus\ [17] $end
$var wire 1 K \altsyncram_component|auto_generated|ram_block1a0_PORTADATAIN_bus\ [16] $end
$var wire 1 L \altsyncram_component|auto_generated|ram_block1a0_PORTADATAIN_bus\ [15] $end
$var wire 1 M \altsyncram_component|auto_generated|ram_block1a0_PORTADATAIN_bus\ [14] $end
$var wire 1 N \altsyncram_component|auto_generated|ram_block1a0_PORTADATAIN_bus\ [13] $end
$var wire 1 O \altsyncram_component|auto_generated|ram_block1a0_PORTADATAIN_bus\ [12] $end
$var wire 1 P \altsyncram_component|auto_generated|ram_block1a0_PORTADATAIN_bus\ [11] $end
$var wire 1 Q \altsyncram_component|auto_generated|ram_block1a0_PORTADATAIN_bus\ [10] $end
$var wire 1 R \altsyncram_component|auto_generated|ram_block1a0_PORTADATAIN_bus\ [9] $end
$var wire 1 S \altsyncram_component|auto_generated|ram_block1a0_PORTADATAIN_bus\ [8] $end
$var wire 1 T \altsyncram_component|auto_generated|ram_block1a0_PORTADATAIN_bus\ [7] $end
$var wire 1 U \altsyncram_component|auto_generated|ram_block1a0_PORTADATAIN_bus\ [6] $end
$var wire 1 V \altsyncram_component|auto_generated|ram_block1a0_PORTADATAIN_bus\ [5] $end
$var wire 1 W \altsyncram_component|auto_generated|ram_block1a0_PORTADATAIN_bus\ [4] $end
$var wire 1 X \altsyncram_component|auto_generated|ram_block1a0_PORTADATAIN_bus\ [3] $end
$var wire 1 Y \altsyncram_component|auto_generated|ram_block1a0_PORTADATAIN_bus\ [2] $end
$var wire 1 Z \altsyncram_component|auto_generated|ram_block1a0_PORTADATAIN_bus\ [1] $end
$var wire 1 [ \altsyncram_component|auto_generated|ram_block1a0_PORTADATAIN_bus\ [0] $end
$var wire 1 \ \altsyncram_component|auto_generated|ram_block1a0_PORTAADDR_bus\ [4] $end
$var wire 1 ] \altsyncram_component|auto_generated|ram_block1a0_PORTAADDR_bus\ [3] $end
$var wire 1 ^ \altsyncram_component|auto_generated|ram_block1a0_PORTAADDR_bus\ [2] $end
$var wire 1 _ \altsyncram_component|auto_generated|ram_block1a0_PORTAADDR_bus\ [1] $end
$var wire 1 ` \altsyncram_component|auto_generated|ram_block1a0_PORTAADDR_bus\ [0] $end
$var wire 1 a \altsyncram_component|auto_generated|ram_block1a0_PORTADATAOUT_bus\ [19] $end
$var wire 1 b \altsyncram_component|auto_generated|ram_block1a0_PORTADATAOUT_bus\ [18] $end
$var wire 1 c \altsyncram_component|auto_generated|ram_block1a0_PORTADATAOUT_bus\ [17] $end
$var wire 1 d \altsyncram_component|auto_generated|ram_block1a0_PORTADATAOUT_bus\ [16] $end
$var wire 1 e \altsyncram_component|auto_generated|ram_block1a0_PORTADATAOUT_bus\ [15] $end
$var wire 1 f \altsyncram_component|auto_generated|ram_block1a0_PORTADATAOUT_bus\ [14] $end
$var wire 1 g \altsyncram_component|auto_generated|ram_block1a0_PORTADATAOUT_bus\ [13] $end
$var wire 1 h \altsyncram_component|auto_generated|ram_block1a0_PORTADATAOUT_bus\ [12] $end
$var wire 1 i \altsyncram_component|auto_generated|ram_block1a0_PORTADATAOUT_bus\ [11] $end
$var wire 1 j \altsyncram_component|auto_generated|ram_block1a0_PORTADATAOUT_bus\ [10] $end
$var wire 1 k \altsyncram_component|auto_generated|ram_block1a0_PORTADATAOUT_bus\ [9] $end
$var wire 1 l \altsyncram_component|auto_generated|ram_block1a0_PORTADATAOUT_bus\ [8] $end
$var wire 1 m \altsyncram_component|auto_generated|ram_block1a0_PORTADATAOUT_bus\ [7] $end
$var wire 1 n \altsyncram_component|auto_generated|ram_block1a0_PORTADATAOUT_bus\ [6] $end
$var wire 1 o \altsyncram_component|auto_generated|ram_block1a0_PORTADATAOUT_bus\ [5] $end
$var wire 1 p \altsyncram_component|auto_generated|ram_block1a0_PORTADATAOUT_bus\ [4] $end
$var wire 1 q \altsyncram_component|auto_generated|ram_block1a0_PORTADATAOUT_bus\ [3] $end
$var wire 1 r \altsyncram_component|auto_generated|ram_block1a0_PORTADATAOUT_bus\ [2] $end
$var wire 1 s \altsyncram_component|auto_generated|ram_block1a0_PORTADATAOUT_bus\ [1] $end
$var wire 1 t \altsyncram_component|auto_generated|ram_block1a0_PORTADATAOUT_bus\ [0] $end
$var wire 1 u \~QUARTUS_CREATED_GND~I_combout\ $end
$var wire 1 v \wren~input_o\ $end
$var wire 1 w \clock~input_o\ $end
$var wire 1 x \clock~inputCLKENA0_outclk\ $end
$var wire 1 y \data[0]~input_o\ $end
$var wire 1 z \address[0]~input_o\ $end
$var wire 1 { \address[1]~input_o\ $end
$var wire 1 | \address[2]~input_o\ $end
$var wire 1 } \address[3]~input_o\ $end
$var wire 1 ~ \address[4]~input_o\ $end
$var wire 1 !! \data[1]~input_o\ $end
$var wire 1 "! \data[2]~input_o\ $end
$var wire 1 #! \data[3]~input_o\ $end
$var wire 1 $! \altsyncram_component|auto_generated|q_a\ [3] $end
$var wire 1 %! \altsyncram_component|auto_generated|q_a\ [2] $end
$var wire 1 &! \altsyncram_component|auto_generated|q_a\ [1] $end
$var wire 1 '! \altsyncram_component|auto_generated|q_a\ [0] $end
$upscope $end
$upscope $end
$enddefinitions $end
#0
$dumpvars
0&
0/
00
11
x2
13
14
15
16
17
18
0>
0C
xu
0v
0w
0x
0y
0z
0{
0|
0}
0~
0!!
0"!
0#!
0!
0"
0#
0$
0%
0'
0(
0)
0*
09
0:
0;
0<
0=
0?
0@
0A
0B
0D
0E
0F
0G
0a
0b
0c
0d
0e
0f
0g
0h
0i
0j
0k
0l
0m
0n
0o
0p
0q
0r
0s
0t
0$!
0%!
0&!
0'!
0H
0I
0J
0K
0L
0M
0N
0O
0P
0Q
0R
0S
0T
0U
0V
0W
0X
0Y
0Z
0[
0\
0]
0^
0_
0`
0+
0,
0-
0.
$end
#40000
1&
1>
1w
1x
#80000
0&
0>
0w
0x
#120000
1&
1>
1w
1x
#160000
0&
1'
1)
1/
0>
1A
1?
1C
1v
1#!
1!!
0w
0x
1Z
1X
#200000
1&
1>
1w
1x
#200001
1q
1s
1$!
1&!
1F
1D
1-
1+
#240000
0&
0'
0)
0/
0>
0A
0?
0C
0v
0#!
0!!
0w
0x
0Z
0X
#280000
1&
1>
1w
1x
#320000
0&
1/
1!
1"
1#
1$
1%
1(
1*
0>
1C
1=
1<
1;
1:
19
1B
1@
1"!
1y
1~
1}
1|
1{
1z
1v
0w
0x
1[
1Y
1`
1_
1^
1]
1\
#360000
1&
1>
1w
1x
#360001
0q
1r
0s
1t
0$!
1%!
0&!
1'!
1G
0F
1E
0D
1.
0-
1,
0+
#400000
0&
0/
0!
0"
0#
0$
0%
0(
0*
0>
0C
0=
0<
0;
0:
09
0B
0@
0"!
0y
0~
0}
0|
0{
0z
0v
0w
0x
0[
0Y
0`
0_
0^
0]
0\
#440000
1&
1>
1w
1x
#440001
1q
0r
1s
0t
1$!
0%!
1&!
0'!
0G
1F
0E
1D
0.
1-
0,
1+
#480000
0&
0>
0w
0x
#520000
1&
1!
1"
1#
1$
1%
1>
1=
1<
1;
1:
19
1~
1}
1|
1{
1z
1w
1x
1`
1_
1^
1]
1\
#520001
0q
1r
0s
1t
0$!
1%!
0&!
1'!
1G
0F
1E
0D
1.
0-
1,
0+
#560000
0&
0>
0w
0x
#600000
1&
1>
1w
1x
#640000
0&
0!
0"
0#
0$
0%
0>
0=
0<
0;
0:
09
0~
0}
0|
0{
0z
0w
0x
0`
0_
0^
0]
0\
#680000
1&
1>
1w
1x
#680001
1q
0r
1s
0t
1$!
0%!
1&!
0'!
0G
1F
0E
1D
0.
1-
0,
1+
#720000
0&
0>
0w
0x
#760000
1&
1>
1w
1x
#800000
0&
0>
0w
0x
#840000
1&
1>
1w
1x
#880000
0&
0>
0w
0x
#920000
1&
1>
1w
1x
#960000
0&
0>
0w
0x
